# Created by Octave 3.6.2, Fri Apr 11 04:02:52 2014 CST <waldronluo@Debian>
# name: accruacyM
# type: matrix
# rows: 6
# columns: 90
 157 1 34 1 123 1 157 1 34 1 123 1 157 1 34 1 123 1 157 1 34 1 123 1 157 0.9871794871794872 34 1 123 0.9836065573770492 157 1 34 1 123 1 157 0.9871794871794872 34 1 123 0.9836065573770492 157 0.9871794871794872 34 1 123 0.9836065573770492 157 1 34 1 123 1 157 0.9871794871794872 34 1 123 0.9836065573770492 157 0.9871794871794872 34 1 123 0.9836065573770492 157 1 34 1 123 1 157 1 34 1 123 1 157 0.9871794871794872 34 1 123 0.9836065573770492 157 0.9871794871794872 34 1 123 0.9836065573770492
 157 0.782051282051282 34 0 123 1 157 0.782051282051282 34 0 123 1 157 0.782051282051282 34 0 123 1 157 0.782051282051282 34 0 123 1 157 0.782051282051282 34 0 123 1 157 0.782051282051282 34 0 123 1 157 0.782051282051282 34 0 123 1 157 0.782051282051282 34 0 123 1 157 0.782051282051282 34 0 123 1 157 0.782051282051282 34 0 123 1 157 0.782051282051282 34 0 123 1 157 0.782051282051282 34 0 123 1 157 0.782051282051282 34 0 123 1 157 0.782051282051282 34 0 123 1 157 0.782051282051282 34 0 123 1
 157 1 34 1 123 1 157 0.9743589743589743 34 1 123 0.9672131147540983 157 1 34 1 123 1 157 1 34 1 123 1 157 1 34 1 123 1 157 1 34 1 123 1 157 1 34 1 123 1 157 1 34 1 123 1 157 1 34 1 123 1 157 1 34 1 123 1 157 0.9871794871794872 34 1 123 0.9836065573770492 157 1 34 1 123 1 157 1 34 1 123 1 157 0.9871794871794872 34 1 123 0.9836065573770492 157 1 34 1 123 1
 157 0.782051282051282 34 0 123 1 157 0.782051282051282 34 0 123 1 157 0.782051282051282 34 0 123 1 157 0.782051282051282 34 0 123 1 157 0.782051282051282 34 0 123 1 157 0.782051282051282 34 0 123 1 157 0.782051282051282 34 0 123 1 157 0.782051282051282 34 0 123 1 157 0.782051282051282 34 0 123 1 157 0.782051282051282 34 0 123 1 157 0.782051282051282 34 0 123 1 157 0.782051282051282 34 0 123 1 157 0.782051282051282 34 0 123 1 157 0.782051282051282 34 0 123 1 157 0.782051282051282 34 0 123 1
 157 0.782051282051282 34 0 123 1 157 0.782051282051282 34 0 123 1 157 0.782051282051282 34 0 123 1 157 0.782051282051282 34 0 123 1 157 0.782051282051282 34 0 123 1 157 0.782051282051282 34 0 123 1 157 0.782051282051282 34 0 123 1 157 0.782051282051282 34 0 123 1 157 0.782051282051282 34 0 123 1 157 0.782051282051282 34 0 123 1 157 0.782051282051282 34 0 123 1 157 0.782051282051282 34 0 123 1 157 0.782051282051282 34 0 123 1 157 0.782051282051282 34 0 123 1 157 0.782051282051282 34 0 123 1
 157 0.9487179487179487 34 0.7647058823529411 123 1 157 0.9615384615384616 34 0.9411764705882353 123 0.9672131147540983 157 0.9487179487179487 34 0.7647058823529411 123 1 157 0.9358974358974359 34 0.7058823529411765 123 1 157 0.9487179487179487 34 0.8235294117647058 123 0.9836065573770492 157 0.9615384615384616 34 0.8235294117647058 123 1 157 0.9230769230769231 34 0.7058823529411765 123 0.9836065573770492 157 0.9102564102564102 34 0.7058823529411765 123 0.9672131147540983 157 0.9230769230769231 34 0.7058823529411765 123 0.9836065573770492 157 0.9487179487179487 34 0.7647058823529411 123 1 157 0.9230769230769231 34 0.6470588235294118 123 1 157 0.9487179487179487 34 0.8235294117647058 123 0.9836065573770492 157 0.9358974358974359 34 0.7058823529411765 123 1 157 0.9102564102564102 34 0.5882352941176471 123 1 157 0.9230769230769231 34 0.7058823529411765 123 0.9836065573770492


