# Created by Octave 3.6.2, Fri Apr 11 04:37:43 2014 CST <waldronluo@Debian>
# name: accruacyM
# type: matrix
# rows: 6
# columns: 90
 173 1 38 1 135 1 173 0.9883720930232558 38 1 135 0.9850746268656716 173 0.9883720930232558 38 1 135 0.9850746268656716 173 1 38 1 135 1 173 0.9883720930232558 38 1 135 0.9850746268656716 173 1 38 1 135 1 173 0.9883720930232558 38 1 135 0.9850746268656716 173 1 38 1 135 1 173 0.9883720930232558 38 1 135 0.9850746268656716 173 0.9883720930232558 38 1 135 0.9850746268656716 173 0.9883720930232558 38 1 135 0.9850746268656716 173 1 38 1 135 1 173 0.9883720930232558 38 1 135 0.9850746268656716 173 0.9883720930232558 38 1 135 0.9850746268656716 173 0.9883720930232558 38 1 135 0.9850746268656716
 173 0.7790697674418605 38 0 135 1 173 0.7790697674418605 38 0 135 1 173 0.7790697674418605 38 0 135 1 173 0.7790697674418605 38 0 135 1 173 0.7790697674418605 38 0 135 1 173 0.7790697674418605 38 0 135 1 173 0.7790697674418605 38 0 135 1 173 0.7790697674418605 38 0 135 1 173 0.7790697674418605 38 0 135 1 173 0.7790697674418605 38 0 135 1 173 0.7790697674418605 38 0 135 1 173 0.7790697674418605 38 0 135 1 173 0.7790697674418605 38 0 135 1 173 0.7790697674418605 38 0 135 1 173 0.7790697674418605 38 0 135 1
 173 0.9767441860465116 38 1 135 0.9701492537313433 173 0.9883720930232558 38 1 135 0.9850746268656716 173 1 38 1 135 1 173 0.9883720930232558 38 1 135 0.9850746268656716 173 0.9883720930232558 38 1 135 0.9850746268656716 173 1 38 1 135 1 173 0.9767441860465116 38 1 135 0.9701492537313433 173 0.9883720930232558 38 1 135 0.9850746268656716 173 1 38 1 135 1 173 1 38 1 135 1 173 0.9767441860465116 38 1 135 0.9701492537313433 173 1 38 1 135 1 173 1 38 1 135 1 173 1 38 1 135 1 173 1 38 1 135 1
 173 0.7790697674418605 38 0 135 1 173 0.7790697674418605 38 0 135 1 173 0.7790697674418605 38 0 135 1 173 0.7790697674418605 38 0 135 1 173 0.7790697674418605 38 0 135 1 173 0.7790697674418605 38 0 135 1 173 0.7790697674418605 38 0 135 1 173 0.7790697674418605 38 0 135 1 173 0.7790697674418605 38 0 135 1 173 0.7790697674418605 38 0 135 1 173 0.7790697674418605 38 0 135 1 173 0.7790697674418605 38 0 135 1 173 0.7790697674418605 38 0 135 1 173 0.7790697674418605 38 0 135 1 173 0.7790697674418605 38 0 135 1
 173 0.7790697674418605 38 0 135 1 173 0.7790697674418605 38 0 135 1 173 0.7790697674418605 38 0 135 1 173 0.7790697674418605 38 0 135 1 173 0.7790697674418605 38 0 135 1 173 0.7790697674418605 38 0 135 1 173 0.7790697674418605 38 0 135 1 173 0.7790697674418605 38 0 135 1 173 0.7790697674418605 38 0 135 1 173 0.7790697674418605 38 0 135 1 173 0.7790697674418605 38 0 135 1 173 0.7790697674418605 38 0 135 1 173 0.7790697674418605 38 0 135 1 173 0.7790697674418605 38 0 135 1 173 0.7790697674418605 38 0 135 1
 173 0.9302325581395349 38 0.7368421052631579 135 0.9850746268656716 173 0.9534883720930233 38 0.8421052631578947 135 0.9850746268656716 173 0.9651162790697675 38 0.8421052631578947 135 1 173 0.9767441860465116 38 0.8947368421052632 135 1 173 0.9418604651162791 38 0.7368421052631579 135 1 173 0.9302325581395349 38 0.6842105263157895 135 1 173 0.9302325581395349 38 0.6842105263157895 135 1 173 0.9418604651162791 38 0.7368421052631579 135 1 173 0.9418604651162791 38 0.7894736842105263 135 0.9850746268656716 173 0.9186046511627907 38 0.6842105263157895 135 0.9850746268656716 173 0.9069767441860465 38 0.6842105263157895 135 0.9701492537313433 173 0.9186046511627907 38 0.631578947368421 135 1 173 0.9534883720930233 38 0.7894736842105263 135 1 173 0.9651162790697675 38 0.8421052631578947 135 1 173 0.9186046511627907 38 0.631578947368421 135 1


