# Created by Octave 3.6.2, Fri Apr 11 04:52:59 2014 CST <waldronluo@Debian>
# name: accruacyM
# type: matrix
# rows: 6
# columns: 90
 180 1 39 1 141 1 180 1 39 1 141 1 180 0.9887640449438202 39 1 141 0.9857142857142858 180 1 39 1 141 1 180 0.9887640449438202 39 1 141 0.9857142857142858 180 1 39 1 141 1 180 0.9887640449438202 39 1 141 0.9857142857142858 180 1 39 1 141 1 180 0.9887640449438202 39 1 141 0.9857142857142858 180 0.9887640449438202 39 1 141 0.9857142857142858 180 1 39 1 141 1 180 1 39 1 141 1 180 1 39 1 141 1 180 1 39 1 141 1 180 1 39 1 141 1
 180 0.7865168539325843 39 0 141 1 180 0.7865168539325843 39 0 141 1 180 0.7865168539325843 39 0 141 1 180 0.7865168539325843 39 0 141 1 180 0.7865168539325843 39 0 141 1 180 0.7865168539325843 39 0 141 1 180 0.7865168539325843 39 0 141 1 180 0.7865168539325843 39 0 141 1 180 0.7865168539325843 39 0 141 1 180 0.7865168539325843 39 0 141 1 180 0.7865168539325843 39 0 141 1 180 0.7865168539325843 39 0 141 1 180 0.7865168539325843 39 0 141 1 180 0.7865168539325843 39 0 141 1 180 0.7865168539325843 39 0 141 1
 180 0.9887640449438202 39 1 141 0.9857142857142858 180 1 39 1 141 1 180 1 39 1 141 1 180 1 39 1 141 1 180 0.9662921348314607 39 1 141 0.9571428571428572 180 0.9887640449438202 39 1 141 0.9857142857142858 180 1 39 1 141 1 180 0.9887640449438202 39 1 141 0.9857142857142858 180 1 39 1 141 1 180 0.9887640449438202 39 1 141 0.9857142857142858 180 0.9887640449438202 39 1 141 0.9857142857142858 180 0.9887640449438202 39 1 141 0.9857142857142858 180 1 39 1 141 1 180 0.9887640449438202 39 1 141 0.9857142857142858 180 0.9887640449438202 39 1 141 0.9857142857142858
 180 0.7865168539325843 39 0 141 1 180 0.7865168539325843 39 0 141 1 180 0.7865168539325843 39 0 141 1 180 0.7865168539325843 39 0 141 1 180 0.7865168539325843 39 0 141 1 180 0.7865168539325843 39 0 141 1 180 0.7865168539325843 39 0 141 1 180 0.7865168539325843 39 0 141 1 180 0.7865168539325843 39 0 141 1 180 0.7865168539325843 39 0 141 1 180 0.7865168539325843 39 0 141 1 180 0.7865168539325843 39 0 141 1 180 0.7865168539325843 39 0 141 1 180 0.7865168539325843 39 0 141 1 180 0.7865168539325843 39 0 141 1
 180 0.7865168539325843 39 0 141 1 180 0.7865168539325843 39 0 141 1 180 0.7865168539325843 39 0 141 1 180 0.7865168539325843 39 0 141 1 180 0.7865168539325843 39 0 141 1 180 0.7865168539325843 39 0 141 1 180 0.7865168539325843 39 0 141 1 180 0.7865168539325843 39 0 141 1 180 0.7865168539325843 39 0 141 1 180 0.7865168539325843 39 0 141 1 180 0.7865168539325843 39 0 141 1 180 0.7865168539325843 39 0 141 1 180 0.7865168539325843 39 0 141 1 180 0.7865168539325843 39 0 141 1 180 0.7865168539325843 39 0 141 1
 180 0.9438202247191011 39 0.7368421052631579 141 1 180 0.9325842696629213 39 0.7368421052631579 141 0.9857142857142858 180 0.9550561797752809 39 0.7894736842105263 141 1 180 0.9438202247191011 39 0.7368421052631579 141 1 180 0.9101123595505618 39 0.6842105263157895 141 0.9714285714285714 180 0.9662921348314607 39 0.8947368421052632 141 0.9857142857142858 180 0.9438202247191011 39 0.8421052631578947 141 0.9714285714285714 180 0.9325842696629213 39 0.7368421052631579 141 0.9857142857142858 180 0.9438202247191011 39 0.8421052631578947 141 0.9714285714285714 180 0.9325842696629213 39 0.7894736842105263 141 0.9714285714285714 180 0.9325842696629213 39 0.6842105263157895 141 1 180 0.9438202247191011 39 0.7368421052631579 141 1 180 0.9550561797752809 39 0.8421052631578947 141 0.9857142857142858 180 0.9101123595505618 39 0.631578947368421 141 0.9857142857142858 180 0.9213483146067416 39 0.6842105263157895 141 0.9857142857142858


