# Created by Octave 3.6.2, Fri Apr 11 00:28:52 2014 CST <waldronluo@Debian>
# name: accruacyM
# type: matrix
# rows: 6
# columns: 90
 59 1 13 1 46 1 59 1 13 1 46 1 59 1 13 1 46 1 59 1 13 1 46 1 59 0.9655172413793104 13 1 46 0.9565217391304348 59 1 13 1 46 1 59 1 13 1 46 1 59 1 13 1 46 1 59 0.9655172413793104 13 1 46 0.9565217391304348 59 1 13 1 46 1 59 1 13 1 46 1 59 1 13 1 46 1 59 1 13 1 46 1 59 1 13 1 46 1 59 1 13 1 46 1
 59 0.7931034482758621 13 0 46 1 59 0.7931034482758621 13 0 46 1 59 0.7931034482758621 13 0 46 1 59 0.7931034482758621 13 0 46 1 59 0.7931034482758621 13 0 46 1 59 0.7931034482758621 13 0 46 1 59 0.7931034482758621 13 0 46 1 59 0.7931034482758621 13 0 46 1 59 0.7931034482758621 13 0 46 1 59 0.7931034482758621 13 0 46 1 59 0.7931034482758621 13 0 46 1 59 0.7931034482758621 13 0 46 1 59 0.7931034482758621 13 0 46 1 59 0.7931034482758621 13 0 46 1 59 0.7931034482758621 13 0 46 1
 59 0.8620689655172413 13 0.3333333333333333 46 1 59 0.7931034482758621 13 0 46 1 59 0.8275862068965517 13 0.1666666666666667 46 1 59 0.8275862068965517 13 0.1666666666666667 46 1 59 0.8275862068965517 13 0.1666666666666667 46 1 59 0.8620689655172413 13 0.3333333333333333 46 1 59 0.8620689655172413 13 0.3333333333333333 46 1 59 0.7931034482758621 13 0 46 1 59 0.7931034482758621 13 0 46 1 59 0.7931034482758621 13 0 46 1 59 0.9655172413793104 13 0.8333333333333334 46 1 59 0.7931034482758621 13 0 46 1 59 0.8620689655172413 13 0.3333333333333333 46 1 59 0.7931034482758621 13 0 46 1 59 1 13 1 46 1
 59 0.7931034482758621 13 0 46 1 59 0.7931034482758621 13 0 46 1 59 0.7931034482758621 13 0 46 1 59 0.7931034482758621 13 0 46 1 59 0.7931034482758621 13 0 46 1 59 0.7931034482758621 13 0 46 1 59 0.7931034482758621 13 0 46 1 59 0.7931034482758621 13 0 46 1 59 0.7931034482758621 13 0 46 1 59 0.7931034482758621 13 0 46 1 59 0.7931034482758621 13 0 46 1 59 0.7931034482758621 13 0 46 1 59 0.7931034482758621 13 0 46 1 59 0.7931034482758621 13 0 46 1 59 0.7931034482758621 13 0 46 1
 59 0.7931034482758621 13 0 46 1 59 0.7931034482758621 13 0 46 1 59 0.7931034482758621 13 0 46 1 59 0.7931034482758621 13 0 46 1 59 0.7931034482758621 13 0 46 1 59 0.7931034482758621 13 0 46 1 59 0.7931034482758621 13 0 46 1 59 0.7931034482758621 13 0 46 1 59 0.7931034482758621 13 0 46 1 59 0.7931034482758621 13 0 46 1 59 0.7931034482758621 13 0 46 1 59 0.7931034482758621 13 0 46 1 59 0.7931034482758621 13 0 46 1 59 0.7931034482758621 13 0 46 1 59 0.7931034482758621 13 0 46 1
 59 1 13 1 46 1 59 0.9655172413793104 13 0.8333333333333334 46 1 59 0.8275862068965517 13 0.1666666666666667 46 1 59 0.8275862068965517 13 0.1666666666666667 46 1 59 0.896551724137931 13 0.5 46 1 59 0.896551724137931 13 0.5 46 1 59 0.8620689655172413 13 0.3333333333333333 46 1 59 0.896551724137931 13 0.5 46 1 59 1 13 1 46 1 59 0.9310344827586207 13 0.6666666666666666 46 1 59 0.8620689655172413 13 0.3333333333333333 46 1 59 0.896551724137931 13 0.5 46 1 59 0.896551724137931 13 0.6666666666666666 46 0.9565217391304348 59 0.896551724137931 13 0.6666666666666666 46 0.9565217391304348 59 0.9310344827586207 13 0.6666666666666666 46 1


