# Created by Octave 3.6.2, Thu Apr 10 17:39:28 2014 CST <waldronluo@Debian>
# name: accruacyM
# type: matrix
# rows: 6
# columns: 60
 64 1 18 1 46 1 64 1 18 1 46 1 64 1 18 1 46 1 64 1 18 1 46 1 64 1 18 1 46 1 64 1 18 1 46 1 64 1 18 1 46 1 64 1 18 1 46 1 64 1 18 1 46 1 64 1 18 1 46 1
 64 0.71875 18 0 46 1 64 0.71875 18 0 46 1 64 0.71875 18 0 46 1 64 0.71875 18 0 46 1 64 0.71875 18 0 46 1 64 0.71875 18 0 46 1 64 0.71875 18 0 46 1 64 0.71875 18 0 46 1 64 0.71875 18 0 46 1 64 0.71875 18 0 46 1
 64 1 18 1 46 1 64 0.96875 18 1 46 0.9565217391304348 64 1 18 1 46 1 64 1 18 1 46 1 64 0.78125 18 0.2222222222222222 46 1 64 0.875 18 0.5555555555555556 46 1 64 1 18 1 46 1 64 0.96875 18 1 46 0.9565217391304348 64 1 18 1 46 1 64 1 18 1 46 1
 64 0.71875 18 0 46 1 64 0.78125 18 0.2222222222222222 46 1 64 0.71875 18 0 46 1 64 0.71875 18 0 46 1 64 0.71875 18 0 46 1 64 0.71875 18 0 46 1 64 0.71875 18 0 46 1 64 0.71875 18 0 46 1 64 0.71875 18 0 46 1 64 0.71875 18 0 46 1
 64 0.71875 18 0 46 1 64 0.71875 18 0 46 1 64 0.71875 18 0 46 1 64 0.71875 18 0 46 1 64 0.71875 18 0 46 1 64 0.71875 18 0 46 1 64 0.71875 18 0 46 1 64 0.71875 18 0 46 1 64 0.71875 18 0 46 1 64 0.71875 18 0 46 1
 64 0.96875 18 0.8888888888888888 46 1 64 1 18 1 46 1 64 0.9375 18 0.7777777777777778 46 1 64 0.84375 18 0.4444444444444444 46 1 64 0.90625 18 0.6666666666666666 46 1 64 0.9375 18 0.7777777777777778 46 1 64 0.84375 18 0.6666666666666666 46 0.9130434782608695 64 0.90625 18 0.6666666666666666 46 1 64 0.9375 18 0.7777777777777778 46 1 64 0.96875 18 0.8888888888888888 46 1


